2022-07-17 17:19:26 INFO  7     conftest.py          login_as_*********()
2022-07-17 17:19:26 DEBUG 7     conftest.py          Login payload: {'username': '*********', 'password': '*********'}
2022-07-17 17:19:26 DEBUG 7     connectionpool.py    Starting new HTTP connection (1): 172.25.0.1:8080
2022-07-17 17:19:26 DEBUG 7     connectionpool.py    http://172.25.0.1:8080 "POST /auth/login HTTP/1.1" 200 285
2022-07-17 17:19:26 INFO  7     test_comments.py     test_get_all_commments
2022-07-17 17:19:26 DEBUG 7     connectionpool.py    http://172.25.0.1:8080 "GET /comments HTTP/1.1" 307 None
2022-07-17 17:19:26 DEBUG 7     connectionpool.py    http://172.25.0.1:8080 "GET /comments/ HTTP/1.1" 200 87
2022-07-17 17:19:26 DEBUG 7     test_comments.py     [{'id': 1, 'comment_text': 'text', 'likes': 0}, {'id': 2, 'comment_text': 'one text', 'likes': 0}]
2022-07-17 17:19:26 DEBUG 7     connectionpool.py    http://172.25.0.1:8080 "GET /health HTTP/1.1" 200 30
2022-07-17 17:19:26 INFO  7     test_users.py        test_user_permissions
2022-07-17 17:19:26 INFO  7     users.py             create_user
2022-07-17 17:19:26 DEBUG 7     users.py             Request payload: {'username': 'rap', 'password_hash': 'solo', 'roles': 'user'}
2022-07-17 17:19:26 DEBUG 7     connectionpool.py    http://172.25.0.1:8080 "POST /users HTTP/1.1" 307 None
2022-07-17 17:19:26 DEBUG 7     connectionpool.py    http://172.25.0.1:8080 "POST /users/ HTTP/1.1" 201 119
2022-07-17 17:19:26 INFO  7     auth.py              login
2022-07-17 17:19:26 DEBUG 7     auth.py              Request payload: {'username': 'rap', 'password': 'solo'}
2022-07-17 17:19:26 DEBUG 7     connectionpool.py    http://172.25.0.1:8080 "POST /auth/login HTTP/1.1" 200 281
2022-07-17 17:19:26 INFO  7     users.py             get_current_user
2022-07-17 17:19:26 DEBUG 7     connectionpool.py    http://172.25.0.1:8080 "GET /users/me HTTP/1.1" 200 119
2022-07-17 17:19:26 INFO  7     users.py             create_user
2022-07-17 17:19:26 DEBUG 7     users.py             Request payload: {'username': 'tony', 'password_hash': 'montana', 'roles': 'user'}
2022-07-17 17:19:26 DEBUG 7     connectionpool.py    http://172.25.0.1:8080 "POST /users HTTP/1.1" 307 None
2022-07-17 17:19:26 DEBUG 7     connectionpool.py    http://172.25.0.1:8080 "POST /users/ HTTP/1.1" 403 36
2022-07-17 17:19:26 INFO  7     users.py             delete_comment
2022-07-17 17:19:26 DEBUG 7     connectionpool.py    http://172.25.0.1:8080 "DELETE /users/5 HTTP/1.1" 403 36
2022-07-17 17:19:26 INFO  7     users.py             delete_comment
2022-07-17 17:19:26 DEBUG 7     connectionpool.py    http://172.25.0.1:8080 "DELETE /users/5 HTTP/1.1" 200 27
